vcd/DRAM_timing.vcd
$date
     May 06, 2020       11:52:23
$end

$version
 SystemC 2.3.3-Accellera --- Mar 19 2020 11:29:17
$end

$timescale
     1 ps
$end

$scope module SystemC $end
$var wire   32  aaaaa  Data [31:0]  $end
$upscope $end
$enddefinitions  $end

$comment
All initial values are dumped below at time 0 sec = 0 timescale units.
$end

$dumpvars
b0 aaaaa
$end

#69500
b1 aaaaa

#82000
b10 aaaaa

#94500
b11 aaaaa

#107000
b100 aaaaa

#119500
b101 aaaaa

#132000
b110 aaaaa

#144500
b111 aaaaa

#157000
b1000 aaaaa

#169500
b1001 aaaaa

#182000
b1010 aaaaa

#194500
b1011 aaaaa

#207000
b1100 aaaaa

#219500
b1101 aaaaa

#232000
b1110 aaaaa

#244500
b1111 aaaaa

#257000
b10000 aaaaa

#269500
b10001 aaaaa

#282000
b10010 aaaaa

#294500
b10011 aaaaa

#307000
b10100 aaaaa

#319500
b10101 aaaaa

#332000
b10110 aaaaa

#344500
b10111 aaaaa

#357000
b11000 aaaaa

#369500
b11001 aaaaa

#382000
b11010 aaaaa

#394500
b11011 aaaaa

#407000
b11100 aaaaa

#419500
b11101 aaaaa

#432000
b11110 aaaaa

#444500
b11111 aaaaa

#457000
b100000 aaaaa

#469500
b100001 aaaaa

#482000
b100010 aaaaa

#494500
b100011 aaaaa

#507000
b100100 aaaaa

#519500
b100101 aaaaa

#532000
b100110 aaaaa

#544500
b100111 aaaaa

#557000
b101000 aaaaa

#569500
b101001 aaaaa

#582000
b101010 aaaaa

#594500
b101011 aaaaa

#607000
b101100 aaaaa

#619500
b101101 aaaaa

#632000
b101110 aaaaa

#644500
b101111 aaaaa

#657000
b110000 aaaaa

#669500
b110001 aaaaa

#682000
b110010 aaaaa

#694500
b110011 aaaaa

#707000
b110100 aaaaa

#719500
b110101 aaaaa

#732000
b110110 aaaaa

#744500
b110111 aaaaa

#757000
b111000 aaaaa

#769500
b111001 aaaaa

#782000
b111010 aaaaa

#794500
b111011 aaaaa

#807000
b111100 aaaaa

#819500
b111101 aaaaa

#832000
b111110 aaaaa

#844500
b111111 aaaaa

#857000
b1000000 aaaaa

#869500
b1000001 aaaaa

#882000
b1000010 aaaaa

#894500
b1000011 aaaaa

#907000
b1000100 aaaaa

#919500
b1000101 aaaaa

#932000
b1000110 aaaaa

#944500
b1000111 aaaaa

#957000
b1001000 aaaaa

#969500
b1001001 aaaaa

#982000
b1001010 aaaaa

#994500
b1001011 aaaaa

#1007000
b1001100 aaaaa

#1019500
b1001101 aaaaa

#1032000
b1001110 aaaaa

#1044500
b1001111 aaaaa

#1057000
b1010000 aaaaa

#1069500
b1010001 aaaaa

#1082000
b1010010 aaaaa

#1094500
b1010011 aaaaa

#1107000
b1010100 aaaaa

#1119500
b1010101 aaaaa

#1132000
b1010110 aaaaa

#1144500
b1010111 aaaaa

#1157000
b1011000 aaaaa

#1169500
b1011001 aaaaa

#1182000
b1011010 aaaaa

#1194500
b1011011 aaaaa

#1207000
b1011100 aaaaa

#1219500
b1011101 aaaaa

#1232000
b1011110 aaaaa

#1244500
b1011111 aaaaa

#1257000
b1100000 aaaaa

#1269500
b1100001 aaaaa

#1282000
b1100010 aaaaa

#1294500
b1100011 aaaaa

#1307000
b1100100 aaaaa

#1319500
b1100101 aaaaa

#1332000
b1100110 aaaaa

#1344500
b1100111 aaaaa

#1357000
b1101000 aaaaa

#1369500
b1101001 aaaaa

#1382000
b1101010 aaaaa

#1394500
b1101011 aaaaa

#1407000
b1101100 aaaaa

#1419500
b1101101 aaaaa

#1432000
b1101110 aaaaa

#1444500
b1101111 aaaaa

#1457000
b1110000 aaaaa

#1469500
b1110001 aaaaa

#1482000
b1110010 aaaaa

#1494500
b1110011 aaaaa

#1507000
b1110100 aaaaa

#1519500
b1110101 aaaaa

#1532000
b1110110 aaaaa

#1544500
b1110111 aaaaa

#1557000
b1111000 aaaaa

#1569500
b1111001 aaaaa

#1582000
b1111010 aaaaa

#1594500
b1111011 aaaaa

#1607000
b1111100 aaaaa

#1619500
b1111101 aaaaa

#1632000
b1111110 aaaaa

#1644500
b1111111 aaaaa

#1657000
b10000000 aaaaa

#1669500
b10000001 aaaaa

#1682000
b10000010 aaaaa

#1694500
b10000011 aaaaa

#1707000
b10000100 aaaaa

#1719500
b10000101 aaaaa

#1732000
b10000110 aaaaa

#1744500
b10000111 aaaaa

#1757000
b10001000 aaaaa

#1769500
b10001001 aaaaa

#1782000
b10001010 aaaaa

#1794500
b10001011 aaaaa

#1807000
b10001100 aaaaa

#1819500
b10001101 aaaaa

#1832000
b10001110 aaaaa

#1844500
b10001111 aaaaa

#1857000
b10010000 aaaaa

#1869500
b10010001 aaaaa

#1882000
b10010010 aaaaa

#1894500
b10010011 aaaaa

#1907000
b10010100 aaaaa

#1919500
b10010101 aaaaa

#1932000
b10010110 aaaaa

#1944500
b10010111 aaaaa

#1957000
b10011000 aaaaa

#1969500
b10011001 aaaaa

#1982000
b10011010 aaaaa

#1994500
b10011011 aaaaa

#2007000
b10011100 aaaaa

#2019500
b10011101 aaaaa

#2032000
b10011110 aaaaa

#2044500
b10011111 aaaaa

#2057000
b10100000 aaaaa

#2069500
b10100001 aaaaa

#2082000
b10100010 aaaaa

#2094500
b10100011 aaaaa

#2107000
b10100100 aaaaa

#2119500
b10100101 aaaaa

#2132000
b10100110 aaaaa

#2144500
b10100111 aaaaa

#2157000
b10101000 aaaaa

#2169500
b10101001 aaaaa

#2182000
b10101010 aaaaa

#2194500
b10101011 aaaaa

#2207000
b10101100 aaaaa

#2219500
b10101101 aaaaa

#2232000
b10101110 aaaaa

#2244500
b10101111 aaaaa

#2257000
b10110000 aaaaa

#2269500
b10110001 aaaaa

#2282000
b10110010 aaaaa

#2294500
b10110011 aaaaa

#2307000
b10110100 aaaaa

#2319500
b10110101 aaaaa

#2332000
b10110110 aaaaa

#2344500
b10110111 aaaaa

#2357000
b10111000 aaaaa

#2369500
b10111001 aaaaa

#2382000
b10111010 aaaaa

#2394500
b10111011 aaaaa

#2407000
b10111100 aaaaa

#2419500
b10111101 aaaaa

#2432000
b10111110 aaaaa

#2444500
b10111111 aaaaa

#2457000
b11000000 aaaaa

#2469500
b11000001 aaaaa

#2482000
b11000010 aaaaa

#2494500
b11000011 aaaaa

#2507000
b11000100 aaaaa

#2519500
b11000101 aaaaa

#2532000
b11000110 aaaaa

#2544500
b11000111 aaaaa

#2557000
b11001000 aaaaa

#2569500
b11001001 aaaaa

#2582000
b11001010 aaaaa

#2594500
b11001011 aaaaa

#2607000
b11001100 aaaaa

#2619500
b11001101 aaaaa

#2632000
b11001110 aaaaa

#2644500
b11001111 aaaaa

#2657000
b11010000 aaaaa

#2669500
b11010001 aaaaa

#2682000
b11010010 aaaaa

#2694500
b11010011 aaaaa

#2707000
b11010100 aaaaa

#2719500
b11010101 aaaaa

#2732000
b11010110 aaaaa

#2744500
b11010111 aaaaa

#2757000
b11011000 aaaaa

#2769500
b11011001 aaaaa

#2782000
b11011010 aaaaa

#2794500
b11011011 aaaaa

#2807000
b11011100 aaaaa

#2819500
b11011101 aaaaa

#2832000
b11011110 aaaaa

#2844500
b11011111 aaaaa

#2857000
b11100000 aaaaa

#2869500
b11100001 aaaaa

#2882000
b11100010 aaaaa

#2894500
b11100011 aaaaa

#2907000
b11100100 aaaaa

#2919500
b11100101 aaaaa

#2932000
b11100110 aaaaa

#2944500
b11100111 aaaaa

#2957000
b11101000 aaaaa

#2969500
b11101001 aaaaa

#2982000
b11101010 aaaaa

#2994500
b11101011 aaaaa

#3007000
b11101100 aaaaa

#3019500
b11101101 aaaaa

#3032000
b11101110 aaaaa

#3044500
b11101111 aaaaa

#3057000
b11110000 aaaaa

#3069500
b11110001 aaaaa

#3082000
b11110010 aaaaa

#3094500
b11110011 aaaaa

#3107000
b11110100 aaaaa

#3119500
b11110101 aaaaa

#3132000
b11110110 aaaaa

#3144500
b11110111 aaaaa

#3157000
b11111000 aaaaa

#3169500
b11111001 aaaaa

#3182000
b11111010 aaaaa

#3194500
b11111011 aaaaa

#3207000
b11111100 aaaaa

#3219500
b11111101 aaaaa

#3232000
b11111110 aaaaa

#3244500
b11111111 aaaaa

#3257000
b100000000 aaaaa

#3269500
b100000001 aaaaa

#3282000
b100000010 aaaaa

#3294500
b100000011 aaaaa

#3307000
b100000100 aaaaa

#3319500
b100000101 aaaaa

#3332000
b100000110 aaaaa

#3344500
b100000111 aaaaa

#3357000
b100001000 aaaaa

#3369500
b100001001 aaaaa

#3382000
b100001010 aaaaa

#3394500
b100001011 aaaaa

#3407000
b100001100 aaaaa

#3419500
b100001101 aaaaa

#3432000
b100001110 aaaaa

#3444500
b100001111 aaaaa

#3457000
b100010000 aaaaa

#3469500
b100010001 aaaaa

#3482000
b100010010 aaaaa

#3494500
b100010011 aaaaa

#3507000
b100010100 aaaaa

#3519500
b100010101 aaaaa

#3532000
b100010110 aaaaa

#3544500
b100010111 aaaaa

#3557000
b100011000 aaaaa

#3569500
b100011001 aaaaa

#3582000
b100011010 aaaaa

#3594500
b100011011 aaaaa

#3607000
b100011100 aaaaa

#3619500
b100011101 aaaaa

#3632000
b100011110 aaaaa

#3644500
b100011111 aaaaa

#3657000
b100100000 aaaaa

#3669500
b100100001 aaaaa

#3682000
b100100010 aaaaa

#3694500
b100100011 aaaaa

#3707000
b100100100 aaaaa

#3719500
b100100101 aaaaa

#3732000
b100100110 aaaaa

#3744500
b100100111 aaaaa

#3757000
b100101000 aaaaa

#3769500
b100101001 aaaaa

#3782000
b100101010 aaaaa

#3794500
b100101011 aaaaa

#3807000
b100101100 aaaaa

#3819500
b100101101 aaaaa

#3832000
b100101110 aaaaa

#3844500
b100101111 aaaaa

#3857000
b100110000 aaaaa

#3869500
b100110001 aaaaa

#3882000
b100110010 aaaaa

#3894500
b100110011 aaaaa

#3907000
b100110100 aaaaa

#3919500
b100110101 aaaaa

#3932000
b100110110 aaaaa

#3944500
b100110111 aaaaa

#3957000
b100111000 aaaaa

#3969500
b100111001 aaaaa

#3982000
b100111010 aaaaa

#3994500
b100111011 aaaaa

#4007000
b100111100 aaaaa

#4019500
b100111101 aaaaa

#4032000
b100111110 aaaaa

#4044500
b100111111 aaaaa

#4057000
b101000000 aaaaa

#4069500
b101000001 aaaaa

#4082000
b101000010 aaaaa

#4094500
b101000011 aaaaa

#4107000
b101000100 aaaaa

#4119500
b101000101 aaaaa

#4132000
b101000110 aaaaa

#4144500
b101000111 aaaaa

#4157000
b101001000 aaaaa

#4169500
b101001001 aaaaa

#4182000
b101001010 aaaaa

#4194500
b101001011 aaaaa

#4207000
b101001100 aaaaa

#4219500
b101001101 aaaaa

#4232000
b101001110 aaaaa

#4244500
b101001111 aaaaa

#4257000
b101010000 aaaaa

#4269500
b101010001 aaaaa

#4282000
b101010010 aaaaa

#4294500
b101010011 aaaaa

#4307000
b101010100 aaaaa

#4319500
b101010101 aaaaa

#4332000
b101010110 aaaaa

#4344500
b101010111 aaaaa

#4357000
b101011000 aaaaa

#4369500
b101011001 aaaaa

#4382000
b101011010 aaaaa

#4394500
b101011011 aaaaa

#4407000
b101011100 aaaaa

#4419500
b101011101 aaaaa

#4432000
b101011110 aaaaa

#4444500
b101011111 aaaaa

#4457000
b101100000 aaaaa

#4469500
b101100001 aaaaa

#4482000
b101100010 aaaaa

#4494500
b101100011 aaaaa

#4507000
b101100100 aaaaa

#4519500
b101100101 aaaaa

#4532000
b101100110 aaaaa

#4544500
b101100111 aaaaa

#4557000
b101101000 aaaaa

#4569500
b101101001 aaaaa

#4582000
b101101010 aaaaa

#4594500
b101101011 aaaaa

#4607000
b101101100 aaaaa

#4619500
b101101101 aaaaa

#4632000
b101101110 aaaaa

#4644500
b101101111 aaaaa

#4657000
b101110000 aaaaa

#4669500
b101110001 aaaaa

#4682000
b101110010 aaaaa

#4694500
b101110011 aaaaa

#4707000
b101110100 aaaaa

#4719500
b101110101 aaaaa

#4732000
b101110110 aaaaa

#4744500
b101110111 aaaaa

#4757000
b101111000 aaaaa

#4769500
b101111001 aaaaa

#4782000
b101111010 aaaaa

#4794500
b101111011 aaaaa

#4807000
b101111100 aaaaa

#4819500
b101111101 aaaaa

#4832000
b101111110 aaaaa

#4844500
b101111111 aaaaa

#4857000
b110000000 aaaaa

#4869500
b110000001 aaaaa

#4882000
b110000010 aaaaa

#4894500
b110000011 aaaaa

#4907000
b110000100 aaaaa

#4919500
b110000101 aaaaa

#4932000
b110000110 aaaaa

#4944500
b110000111 aaaaa

#4957000
b110001000 aaaaa

#4969500
b110001001 aaaaa

#4982000
b110001010 aaaaa

#4994500
b110001011 aaaaa

#5007000
b110001100 aaaaa

#5019500
b110001101 aaaaa

#5032000
b110001110 aaaaa

#5044500
b110001111 aaaaa

#5057000
b110010000 aaaaa

#5069500
b110010001 aaaaa

#5082000
b110010010 aaaaa

#5094500
b110010011 aaaaa

#5107000
b110010100 aaaaa

#5119500
b110010101 aaaaa

#5132000
b110010110 aaaaa

#5144500
b110010111 aaaaa

#5157000
b110011000 aaaaa

#5169500
b110011001 aaaaa

#5182000
b110011010 aaaaa

#5194500
b110011011 aaaaa

#5207000
b110011100 aaaaa

#5219500
b110011101 aaaaa

#5232000
b110011110 aaaaa

#5244500
b110011111 aaaaa

#5257000
b110100000 aaaaa

#5269500
b110100001 aaaaa

#5282000
b110100010 aaaaa

#5294500
b110100011 aaaaa

#5307000
b110100100 aaaaa

#5319500
b110100101 aaaaa

#5332000
b110100110 aaaaa

#5344500
b110100111 aaaaa

#5357000
b110101000 aaaaa

#5369500
b110101001 aaaaa

#5382000
b110101010 aaaaa

#5394500
b110101011 aaaaa

#5407000
b110101100 aaaaa

#5419500
b110101101 aaaaa

#5432000
b110101110 aaaaa

#5444500
b110101111 aaaaa

#5457000
b110110000 aaaaa

#5469500
b110110001 aaaaa

#5482000
b110110010 aaaaa

#5494500
b110110011 aaaaa

#5507000
b110110100 aaaaa

#5519500
b110110101 aaaaa

#5532000
b110110110 aaaaa

#5544500
b110110111 aaaaa

#5557000
b110111000 aaaaa

#5569500
b110111001 aaaaa

#5582000
b110111010 aaaaa

#5594500
b110111011 aaaaa

#5607000
b110111100 aaaaa

#5619500
b110111101 aaaaa

#5632000
b110111110 aaaaa

#5644500
b110111111 aaaaa

#5657000
b111000000 aaaaa

#5669500
b111000001 aaaaa

#5682000
b111000010 aaaaa

#5694500
b111000011 aaaaa

#5707000
b111000100 aaaaa

#5719500
b111000101 aaaaa

#5732000
b111000110 aaaaa

#5744500
b111000111 aaaaa

#5757000
b111001000 aaaaa

#5769500
b111001001 aaaaa

#5782000
b111001010 aaaaa

#5794500
b111001011 aaaaa

#5807000
b111001100 aaaaa

#5819500
b111001101 aaaaa

#5832000
b111001110 aaaaa

#5844500
b111001111 aaaaa

#5857000
b111010000 aaaaa

#5869500
b111010001 aaaaa

#5882000
b111010010 aaaaa

#5894500
b111010011 aaaaa

#5907000
b111010100 aaaaa

#5919500
b111010101 aaaaa

#5932000
b111010110 aaaaa

#5944500
b111010111 aaaaa

#5957000
b111011000 aaaaa

#5969500
b111011001 aaaaa

#5982000
b111011010 aaaaa

#5994500
b111011011 aaaaa

#6007000
b111011100 aaaaa

#6019500
b111011101 aaaaa

#6032000
b111011110 aaaaa

#6044500
b111011111 aaaaa

#6057000
b111100000 aaaaa

#6069500
b111100001 aaaaa

#6082000
b111100010 aaaaa

#6094500
b111100011 aaaaa

#6107000
b111100100 aaaaa

#6119500
b111100101 aaaaa

#6132000
b111100110 aaaaa

#6144500
b111100111 aaaaa

#6157000
b111101000 aaaaa

#6169500
b111101001 aaaaa

#6182000
b111101010 aaaaa

#6194500
b111101011 aaaaa

#6207000
b111101100 aaaaa

#6219500
b111101101 aaaaa

#6232000
b111101110 aaaaa

#6244500
b111101111 aaaaa

#6257000
b111110000 aaaaa

#6269500
b111110001 aaaaa

#6282000
b111110010 aaaaa

#6294500
b111110011 aaaaa

#6307000
b111110100 aaaaa

#6319500
b111110101 aaaaa

#6332000
b111110110 aaaaa

#6344500
b111110111 aaaaa

#6357000
b111111000 aaaaa

#6369500
b111111001 aaaaa

#6382000
b111111010 aaaaa

#6394500
b111111011 aaaaa

#6407000
b111111100 aaaaa

#6419500
b111111101 aaaaa

#6432000
b111111110 aaaaa

#6444500
b111111111 aaaaa

#6457000
b1000000000 aaaaa

#6469500
b1000000001 aaaaa

#6482000
b1000000010 aaaaa

#6494500
b1000000011 aaaaa

#6507000
b1000000100 aaaaa

#6519500
b1000000101 aaaaa

#6532000
b1000000110 aaaaa

#6544500
b1000000111 aaaaa

#6557000
b1000001000 aaaaa

#6569500
b1000001001 aaaaa

#6582000
b1000001010 aaaaa

#6594500
b1000001011 aaaaa

#6607000
b1000001100 aaaaa

#6619500
b1000001101 aaaaa

#6632000
b1000001110 aaaaa

#6644500
b1000001111 aaaaa

#6657000
b1000010000 aaaaa

#6669500
b1000010001 aaaaa

#6682000
b1000010010 aaaaa

#6694500
b1000010011 aaaaa

#6707000
b1000010100 aaaaa

#6719500
b1000010101 aaaaa

#6732000
b1000010110 aaaaa

#6744500
b1000010111 aaaaa

#6757000
b1000011000 aaaaa

#6769500
b1000011001 aaaaa

#6782000
b1000011010 aaaaa

#6794500
b1000011011 aaaaa

#6807000
b1000011100 aaaaa

#6819500
b1000011101 aaaaa

#6832000
b1000011110 aaaaa

#6844500
b1000011111 aaaaa

#6857000
b1000100000 aaaaa

#6869500
b1000100001 aaaaa

#6882000
b1000100010 aaaaa

#6894500
b1000100011 aaaaa

#6907000
b1000100100 aaaaa

#6919500
b1000100101 aaaaa

#6932000
b1000100110 aaaaa

#6944500
b1000100111 aaaaa

#6957000
b1000101000 aaaaa

#6969500
b1000101001 aaaaa

#6982000
b1000101010 aaaaa

#6994500
b1000101011 aaaaa

#7007000
b1000101100 aaaaa

#7019500
b1000101101 aaaaa

#7032000
b1000101110 aaaaa

#7044500
b1000101111 aaaaa

#7057000
b1000110000 aaaaa

#7069500
b1000110001 aaaaa

#7082000
b1000110010 aaaaa

#7094500
b1000110011 aaaaa

#7107000
b1000110100 aaaaa

#7119500
b1000110101 aaaaa

#7132000
b1000110110 aaaaa

#7144500
b1000110111 aaaaa

#7157000
b1000111000 aaaaa

#7169500
b1000111001 aaaaa

#7182000
b1000111010 aaaaa

#7194500
b1000111011 aaaaa

#7207000
b1000111100 aaaaa

#7219500
b1000111101 aaaaa

#7232000
b1000111110 aaaaa

#7244500
b1000111111 aaaaa

#7257000
b1001000000 aaaaa

#7269500
b1001000001 aaaaa

#7282000
b1001000010 aaaaa

#7294500
b1001000011 aaaaa

#7307000
b1001000100 aaaaa

#7319500
b1001000101 aaaaa

#7332000
b1001000110 aaaaa

#7344500
b1001000111 aaaaa

#7357000
b1001001000 aaaaa

#7369500
b1001001001 aaaaa

#7382000
b1001001010 aaaaa

#7394500
b1001001011 aaaaa

#7407000
b1001001100 aaaaa

#7419500
b1001001101 aaaaa

#7432000
b1001001110 aaaaa

#7444500
b1001001111 aaaaa

#7457000
b1001010000 aaaaa

#7469500
b1001010001 aaaaa

#7482000
b1001010010 aaaaa

#7494500
b1001010011 aaaaa

#7507000
b1001010100 aaaaa

#7519500
b1001010101 aaaaa

#7532000
b1001010110 aaaaa

#7544500
b1001010111 aaaaa

#7557000
b1001011000 aaaaa

#7569500
b1001011001 aaaaa

#7582000
b1001011010 aaaaa

#7594500
b1001011011 aaaaa

#7607000
b1001011100 aaaaa

#7619500
b1001011101 aaaaa

#7632000
b1001011110 aaaaa

#7644500
b1001011111 aaaaa

#7657000
b1001100000 aaaaa

#7669500
b1001100001 aaaaa

#7682000
b1001100010 aaaaa

#7694500
b1001100011 aaaaa

#7707000
b1001100100 aaaaa

#7719500
b1001100101 aaaaa

#7732000
b1001100110 aaaaa

#7744500
b1001100111 aaaaa

#7757000
b1001101000 aaaaa

#7769500
b1001101001 aaaaa

#7782000
b1001101010 aaaaa

#7794500
b1001101011 aaaaa

#7807000
b1001101100 aaaaa

#7819500
b1001101101 aaaaa

#7832000
b1001101110 aaaaa

#7844500
b1001101111 aaaaa

#7857000
b1001110000 aaaaa

#7869500
b1001110001 aaaaa

#7882000
b1001110010 aaaaa

#7894500
b1001110011 aaaaa

#7907000
b1001110100 aaaaa

#7919500
b1001110101 aaaaa

#7932000
b1001110110 aaaaa

#7944500
b1001110111 aaaaa

#7957000
b1001111000 aaaaa

#7969500
b1001111001 aaaaa

#7982000
b1001111010 aaaaa

#7994500
b1001111011 aaaaa

#8007000
b1001111100 aaaaa

#8019500
b1001111101 aaaaa

#8032000
b1001111110 aaaaa

#8044500
b1001111111 aaaaa

#8057000
b1010000000 aaaaa

#8069500
b1010000001 aaaaa

#8082000
b1010000010 aaaaa

#8094500
b1010000011 aaaaa

#8107000
b1010000100 aaaaa

#8119500
b1010000101 aaaaa

#8132000
b1010000110 aaaaa

#8144500
b1010000111 aaaaa

#8157000
b1010001000 aaaaa

#8169500
b1010001001 aaaaa

#8182000
b1010001010 aaaaa

#8194500
b1010001011 aaaaa

#8207000
b1010001100 aaaaa

#8219500
b1010001101 aaaaa

#8232000
b1010001110 aaaaa

#8244500
b1010001111 aaaaa

#8257000
b1010010000 aaaaa

#8269500
b1010010001 aaaaa

#8282000
b1010010010 aaaaa

#8294500
b1010010011 aaaaa

#8307000
b1010010100 aaaaa

#8319500
b1010010101 aaaaa

#8332000
b1010010110 aaaaa

#8344500
b1010010111 aaaaa

#8357000
b1010011000 aaaaa

#8369500
b1010011001 aaaaa

#8382000
b1010011010 aaaaa

#8394500
b1010011011 aaaaa

#8407000
b1010011100 aaaaa

#8419500
b1010011101 aaaaa

#8432000
b1010011110 aaaaa

#8444500
b1010011111 aaaaa

#8457000
b1010100000 aaaaa

#8469500
b1010100001 aaaaa

#8482000
b1010100010 aaaaa

#8494500
b1010100011 aaaaa

#8507000
b1010100100 aaaaa

#8519500
b1010100101 aaaaa

#8532000
b1010100110 aaaaa

#8544500
b1010100111 aaaaa

#8557000
b1010101000 aaaaa

#8569500
b1010101001 aaaaa

#8582000
b1010101010 aaaaa

#8594500
b1010101011 aaaaa

#8607000
b1010101100 aaaaa

#8619500
b1010101101 aaaaa

#8632000
b1010101110 aaaaa

#8644500
b1010101111 aaaaa

#8657000
b1010110000 aaaaa

#8669500
b1010110001 aaaaa

#8682000
b1010110010 aaaaa

#8694500
b1010110011 aaaaa

#8707000
b1010110100 aaaaa

#8719500
b1010110101 aaaaa

#8732000
b1010110110 aaaaa

#8744500
b1010110111 aaaaa

#8757000
b1010111000 aaaaa

#8769500
b1010111001 aaaaa

#8782000
b1010111010 aaaaa

#8794500
b1010111011 aaaaa

#8807000
b1010111100 aaaaa

#8819500
b1010111101 aaaaa

#8832000
b1010111110 aaaaa

#8844500
b1010111111 aaaaa

#8857000
b1011000000 aaaaa

#8869500
b1011000001 aaaaa

#8882000
b1011000010 aaaaa

#8894500
b1011000011 aaaaa

#8907000
b1011000100 aaaaa

#8919500
b1011000101 aaaaa

#8932000
b1011000110 aaaaa

#8944500
b1011000111 aaaaa

#8957000
b1011001000 aaaaa

#8969500
b1011001001 aaaaa

#8982000
b1011001010 aaaaa

#8994500
b1011001011 aaaaa

#9007000
b1011001100 aaaaa

#9019500
b1011001101 aaaaa

#9032000
b1011001110 aaaaa

#9044500
b1011001111 aaaaa

#9057000
b1011010000 aaaaa

#9069500
b1011010001 aaaaa

#9082000
b1011010010 aaaaa

#9094500
b1011010011 aaaaa

#9107000
b1011010100 aaaaa

#9119500
b1011010101 aaaaa

#9132000
b1011010110 aaaaa

#9144500
b1011010111 aaaaa

#9157000
b1011011000 aaaaa

#9169500
b1011011001 aaaaa

#9182000
b1011011010 aaaaa

#9194500
b1011011011 aaaaa

#9207000
b1011011100 aaaaa

#9219500
b1011011101 aaaaa

#9232000
b1011011110 aaaaa

#9244500
b1011011111 aaaaa

#9257000
b1011100000 aaaaa

#9269500
b1011100001 aaaaa

#9282000
b1011100010 aaaaa

#9294500
b1011100011 aaaaa

#9307000
b1011100100 aaaaa

#9319500
b1011100101 aaaaa

#9332000
b1011100110 aaaaa

#9344500
b1011100111 aaaaa

#9357000
b1011101000 aaaaa

#9369500
b1011101001 aaaaa

#9382000
b1011101010 aaaaa

#9394500
b1011101011 aaaaa

#9407000
b1011101100 aaaaa

#9419500
b1011101101 aaaaa

#9432000
b1011101110 aaaaa

#9444500
b1011101111 aaaaa

#9457000
b1011110000 aaaaa

#9469500
b1011110001 aaaaa

#9482000
b1011110010 aaaaa

#9494500
b1011110011 aaaaa

#9507000
b1011110100 aaaaa

#9519500
b1011110101 aaaaa

#9532000
b1011110110 aaaaa

#9544500
b1011110111 aaaaa

#9557000
b1011111000 aaaaa

#9569500
b1011111001 aaaaa

#9582000
b1011111010 aaaaa

#9594500
b1011111011 aaaaa

#9607000
b1011111100 aaaaa

#9619500
b1011111101 aaaaa

#9632000
b1011111110 aaaaa

#9644500
b1011111111 aaaaa

#9657000
b1100000000 aaaaa

#9669500
b1100000001 aaaaa

#9682000
b1100000010 aaaaa

#9694500
b1100000011 aaaaa

#9707000
b1100000100 aaaaa

#9719500
b1100000101 aaaaa

#9732000
b1100000110 aaaaa

#9744500
b1100000111 aaaaa

#9757000
b1100001000 aaaaa

#9769500
b1100001001 aaaaa

#9782000
b1100001010 aaaaa

#9794500
b1100001011 aaaaa

#9807000
b1100001100 aaaaa

#9819500
b1100001101 aaaaa

#9832000
b1100001110 aaaaa

#9844500
b1100001111 aaaaa

#9857000
b1100010000 aaaaa

#9869500
b1100010001 aaaaa

#9882000
b1100010010 aaaaa

#9894500
b1100010011 aaaaa

#9907000
b1100010100 aaaaa

#9919500
b1100010101 aaaaa

#9932000
b1100010110 aaaaa

#9944500
b1100010111 aaaaa

#9957000
b1100011000 aaaaa

#9969500
b1100011001 aaaaa

#9982000
b1100011010 aaaaa

#9994500
b1100011011 aaaaa

#10007000
b1100011100 aaaaa

#10019500
b1100011101 aaaaa

#10032000
b1100011110 aaaaa

#10044500
b1100011111 aaaaa

#10057000
b1100100000 aaaaa

#10069500
b1100100001 aaaaa

#10082000
b1100100010 aaaaa

#10094500
b1100100011 aaaaa

#10107000
b1100100100 aaaaa

#10119500
b1100100101 aaaaa

#10132000
b1100100110 aaaaa

#10144500
b1100100111 aaaaa

#10157000
b1100101000 aaaaa

#10169500
b1100101001 aaaaa

#10182000
b1100101010 aaaaa

#10194500
b1100101011 aaaaa

#10207000
b1100101100 aaaaa

#10219500
b1100101101 aaaaa

#10232000
b1100101110 aaaaa

#10244500
b1100101111 aaaaa

#10257000
b1100110000 aaaaa

#10269500
b1100110001 aaaaa

#10282000
b1100110010 aaaaa

#10294500
b1100110011 aaaaa

#10307000
b1100110100 aaaaa

#10319500
b1100110101 aaaaa

#10332000
b1100110110 aaaaa

#10344500
b1100110111 aaaaa

#10357000
b1100111000 aaaaa

#10369500
b1100111001 aaaaa

#10382000
b1100111010 aaaaa

#10394500
b1100111011 aaaaa

#10407000
b1100111100 aaaaa

#10419500
b1100111101 aaaaa

#10432000
b1100111110 aaaaa

#10444500
b1100111111 aaaaa

#10457000
b1101000000 aaaaa

#10469500
b1101000001 aaaaa

#10482000
b1101000010 aaaaa

#10494500
b1101000011 aaaaa

#10507000
b1101000100 aaaaa

#10519500
b1101000101 aaaaa

#10532000
b1101000110 aaaaa

#10544500
b1101000111 aaaaa

#10557000
b1101001000 aaaaa

#10569500
b1101001001 aaaaa

#10582000
b1101001010 aaaaa

#10594500
b1101001011 aaaaa

#10607000
b1101001100 aaaaa

#10619500
b1101001101 aaaaa

#10632000
b1101001110 aaaaa

#10644500
b1101001111 aaaaa

#10657000
b1101010000 aaaaa

#10669500
b1101010001 aaaaa

#10682000
b1101010010 aaaaa

#10694500
b1101010011 aaaaa

#10707000
b1101010100 aaaaa

#10719500
b1101010101 aaaaa

#10732000
b1101010110 aaaaa

#10744500
b1101010111 aaaaa

#10757000
b1101011000 aaaaa

#10769500
b1101011001 aaaaa

#10782000
b1101011010 aaaaa

#10794500
b1101011011 aaaaa

#10807000
b1101011100 aaaaa

#10819500
b1101011101 aaaaa

#10832000
b1101011110 aaaaa

#10844500
b1101011111 aaaaa

#10857000
b1101100000 aaaaa

#10869500
b1101100001 aaaaa

#10882000
b1101100010 aaaaa

#10894500
b1101100011 aaaaa

#10907000
b1101100100 aaaaa

#10919500
b1101100101 aaaaa

#10932000
b1101100110 aaaaa

#10944500
b1101100111 aaaaa

#10957000
b1101101000 aaaaa

#10969500
b1101101001 aaaaa

#10982000
b1101101010 aaaaa

#10994500
b1101101011 aaaaa

#11007000
b1101101100 aaaaa

#11019500
b1101101101 aaaaa

#11032000
b1101101110 aaaaa

#11044500
b1101101111 aaaaa

#11057000
b1101110000 aaaaa

#11069500
b1101110001 aaaaa

#11082000
b1101110010 aaaaa

#11094500
b1101110011 aaaaa

#11107000
b1101110100 aaaaa

#11119500
b1101110101 aaaaa

#11132000
b1101110110 aaaaa

#11144500
b1101110111 aaaaa

#11157000
b1101111000 aaaaa

#11169500
b1101111001 aaaaa

#11182000
b1101111010 aaaaa

#11194500
b1101111011 aaaaa

#11207000
b1101111100 aaaaa

#11219500
b1101111101 aaaaa

#11232000
b1101111110 aaaaa

#11244500
b1101111111 aaaaa

#11257000
b1110000000 aaaaa

#11269500
b1110000001 aaaaa

#11282000
b1110000010 aaaaa

#11294500
b1110000011 aaaaa

#11307000
b1110000100 aaaaa

#11319500
b1110000101 aaaaa

#11332000
b1110000110 aaaaa

#11344500
b1110000111 aaaaa

#11357000
b1110001000 aaaaa

#11369500
b1110001001 aaaaa

#11382000
b1110001010 aaaaa

#11394500
b1110001011 aaaaa

#11407000
b1110001100 aaaaa

#11419500
b1110001101 aaaaa

