vcd/PE.vcd
$date
     May 04, 2020       00:38:51
$end

$version
 SystemC 2.3.3-Accellera --- Mar 19 2020 11:29:17
$end

$timescale
     1 ps
$end

$scope module SystemC $end
$var wire    1  aaaaa  Clock       $end
$var wire    8  aaaab  WeightOlddata [7:0]  $end
$var wire    4  aaaac  WeightaddrOldenPEen [3:0]  $end
$var wire    8  aaaad  Input0 [7:0]  $end
$var wire    8  aaaae  Input1 [7:0]  $end
$var wire    8  aaaaf  Input2 [7:0]  $end
$var wire    8  aaaag  Input3 [7:0]  $end
$var wire    8  aaaah  Input4 [7:0]  $end
$var wire    8  aaaai  Input5 [7:0]  $end
$var wire    8  aaaaj  Input6 [7:0]  $end
$var wire    8  aaaak  Input7 [7:0]  $end
$var wire    8  aaaal  Input8 [7:0]  $end
$var wire    8  aaaam  Output [7:0]  $end
$var wire   32  aaaan  INDEX [31:0]  $end
$upscope $end
$enddefinitions  $end

$comment
All initial values are dumped below at time 0 sec = 0 timescale units.
$end

$dumpvars
0aaaaa
b1 aaaab
b0 aaaac
b0 aaaad
b0 aaaae
b0 aaaaf
b0 aaaag
b0 aaaah
b0 aaaai
b0 aaaaj
b0 aaaak
b0 aaaal
b0 aaaam
b1 aaaan
$end

#10000
1aaaaa

#20000
0aaaaa
b10 aaaab
b1 aaaac
b10 aaaan

#30000
1aaaaa

#40000
0aaaaa
b11 aaaab
b10 aaaac
b11 aaaan

#50000
1aaaaa

#60000
0aaaaa
b100 aaaab
b11 aaaac
b100 aaaan

#70000
1aaaaa

#80000
0aaaaa
b101 aaaab
b100 aaaac
b101 aaaan

#90000
1aaaaa

#100000
0aaaaa
b110 aaaab
b101 aaaac
b110 aaaan

#110000
1aaaaa

#120000
0aaaaa
b111 aaaab
b110 aaaac
b111 aaaan

#130000
1aaaaa

#140000
0aaaaa
b1000 aaaab
b111 aaaac
b1000 aaaan

#150000
1aaaaa

#160000
0aaaaa
b1001 aaaab
b1000 aaaac
b0 aaaan

#170000
1aaaaa

#180000
0aaaaa
b100101 aaaab
b1001 aaaac
b1 aaaae
b10 aaaaf
b11 aaaag
b100 aaaah
b101 aaaai
b110 aaaaj
b111 aaaak
b1000 aaaal
b1 aaaan

#190000
1aaaaa
b11110000 aaaam

#200000
0aaaaa
b1000 aaaad
b111 aaaae
b110 aaaaf
b101 aaaag
b11 aaaai
b10 aaaaj
b1 aaaak
b0 aaaal
b10 aaaan

#210000
1aaaaa
b1111000 aaaam

#220000
0aaaaa
b101 aaaad
b101 aaaae
b101 aaaaf
b101 aaaah
b101 aaaai
b101 aaaaj
b101 aaaak
b101 aaaal
b11 aaaan

#230000
1aaaaa
b11100001 aaaam

#240000
0aaaaa
b1010 aaaad
b1010 aaaae
b1010 aaaaf
b1010 aaaag
b1010 aaaah
b1010 aaaai
b1010 aaaaj
b1010 aaaak
b1010 aaaal
b0 aaaan

#250000
1aaaaa
b11000010 aaaam

#260000
0aaaaa
b1010 aaaac
b0 aaaad
b1 aaaae
b10 aaaaf
b11 aaaag
b100 aaaah
b101 aaaai
b110 aaaaj
b111 aaaak
b1000 aaaal
b1 aaaan

#270000
1aaaaa
b10101 aaaam

#280000
0aaaaa
b1000 aaaad
b111 aaaae
b110 aaaaf
b101 aaaag
b11 aaaai
b10 aaaaj
b1 aaaak
b0 aaaal
b10 aaaan

#290000
1aaaaa
b10011101 aaaam

#300000
0aaaaa
b101 aaaad
b101 aaaae
b101 aaaaf
b101 aaaah
b101 aaaai
b101 aaaaj
b101 aaaak
b101 aaaal
b11 aaaan

#310000
1aaaaa
b110 aaaam

#320000
0aaaaa
b1010 aaaad
b1010 aaaae
b1010 aaaaf
b1010 aaaag
b1010 aaaah
b1010 aaaai
b1010 aaaaj
b1010 aaaak
b1010 aaaal
b0 aaaan

#330000
1aaaaa
b11100111 aaaam

