vcd/PE.vcd
$date
     Jun 15, 2020       00:15:03
$end

$version
 SystemC 2.3.3-Accellera --- Mar 19 2020 11:29:17
$end

$timescale
     1 ps
$end

$scope module SystemC $end
$var wire    1  aaaaa  Clock       $end
$var wire   64  aaaab  WeightOlddata [63:0]  $end
$var wire    4  aaaac  WeightaddrOldenPEen [3:0]  $end
$var wire   32  aaaad  Input0 [31:0]  $end
$var wire   32  aaaae  Input1 [31:0]  $end
$var wire   32  aaaaf  Input2 [31:0]  $end
$var wire   32  aaaag  Input3 [31:0]  $end
$var wire   32  aaaah  Input4 [31:0]  $end
$var wire   32  aaaai  Input5 [31:0]  $end
$var wire   32  aaaaj  Input6 [31:0]  $end
$var wire   32  aaaak  Input7 [31:0]  $end
$var wire   32  aaaal  Input8 [31:0]  $end
$var wire   64  aaaam  Output [63:0]  $end
$var wire   32  aaaan  INDEX [31:0]  $end
$upscope $end
$enddefinitions  $end

$comment
All initial values are dumped below at time 0 sec = 0 timescale units.
$end

$dumpvars
1aaaaa
b0 aaaab
b0 aaaac
b0 aaaad
b0 aaaae
b0 aaaaf
b0 aaaag
b0 aaaah
b0 aaaai
b0 aaaaj
b0 aaaak
b0 aaaal
b0 aaaam
b0 aaaan
$end

#10000
0aaaaa
b1 aaaab
b1 aaaan

#20000
1aaaaa

#30000
0aaaaa
b10 aaaab
b1 aaaac
b10 aaaan

#40000
1aaaaa

#50000
0aaaaa
b11 aaaab
b10 aaaac
b11 aaaan

#60000
1aaaaa

#70000
0aaaaa
b100 aaaab
b11 aaaac
b100 aaaan

#80000
1aaaaa

#90000
0aaaaa
b11111111111111111111111111111011 aaaab
b100 aaaac
b101 aaaan

#100000
1aaaaa

#110000
0aaaaa
b11111111111111111111111111111010 aaaab
b101 aaaac
b110 aaaan

#120000
1aaaaa

#130000
0aaaaa
b11111111111111111111111111111001 aaaab
b110 aaaac
b111 aaaan

#140000
1aaaaa

#150000
0aaaaa
b11111111111111111111111111111000 aaaab
b111 aaaac
b1000 aaaan

#160000
1aaaaa

#170000
0aaaaa
b11111111111111111111111111110111 aaaab
b1000 aaaac
b0 aaaan

#180000
1aaaaa

#190000
0aaaaa
b0 aaaab
b1001 aaaac
b1 aaaae
b10 aaaaf
b11 aaaag
b100 aaaah
b101 aaaai
b110 aaaaj
b111 aaaak
b1000 aaaal
b1111111111111111111111111111111111111111111111111111111100111000 aaaam
b1 aaaan

#200000
1aaaaa

#210000
0aaaaa
b11111111111111111111111111111000 aaaad
b11111111111111111111111111111001 aaaae
b11111111111111111111111111111010 aaaaf
b11111111111111111111111111111011 aaaag
b11111111111111111111111111111100 aaaah
b11111111111111111111111111111101 aaaai
b11111111111111111111111111111110 aaaaj
b11111111111111111111111111111111 aaaak
b0 aaaal
b0 aaaam
b10 aaaan

#220000
1aaaaa

#230000
0aaaaa
b101 aaaad
b101 aaaae
b101 aaaaf
b101 aaaag
b101 aaaah
b101 aaaai
b101 aaaaj
b101 aaaak
b101 aaaal
b1111111111111111111111111111111111111111111111111111111110000011 aaaam
b11 aaaan

#240000
1aaaaa

#250000
0aaaaa
b11111111111111111111111111110110 aaaad
b11111111111111111111111111110110 aaaae
b11111111111111111111111111110110 aaaaf
b11111111111111111111111111110110 aaaag
b11111111111111111111111111110110 aaaah
b11111111111111111111111111110110 aaaai
b11111111111111111111111111110110 aaaaj
b11111111111111111111111111110110 aaaak
b11111111111111111111111111110110 aaaal
b11111010 aaaam
b0 aaaan

#260000
1aaaaa

#270000
0aaaaa
b100101 aaaab
b0 aaaad
b1 aaaae
b10 aaaaf
b11 aaaag
b100 aaaah
b101 aaaai
b110 aaaaj
b111 aaaak
b1000 aaaal
b1111111111111111111111111111111111111111111111111111111101011101 aaaam
b1 aaaan

#280000
1aaaaa

#290000
0aaaaa
b11111111111111111111111111111000 aaaad
b11111111111111111111111111111001 aaaae
b11111111111111111111111111111010 aaaaf
b11111111111111111111111111111011 aaaag
b11111111111111111111111111111100 aaaah
b11111111111111111111111111111101 aaaai
b11111111111111111111111111111110 aaaaj
b11111111111111111111111111111111 aaaak
b0 aaaal
b100101 aaaam
b10 aaaan

#300000
1aaaaa

#310000
0aaaaa
b101 aaaad
b101 aaaae
b101 aaaaf
b101 aaaag
b101 aaaah
b101 aaaai
b101 aaaaj
b101 aaaak
b101 aaaal
b1111111111111111111111111111111111111111111111111111111110101000 aaaam
b11 aaaan

#320000
1aaaaa

#330000
0aaaaa
b11111111111111111111111111110110 aaaad
b11111111111111111111111111110110 aaaae
b11111111111111111111111111110110 aaaaf
b11111111111111111111111111110110 aaaag
b11111111111111111111111111110110 aaaah
b11111111111111111111111111110110 aaaai
b11111111111111111111111111110110 aaaaj
b11111111111111111111111111110110 aaaak
b11111111111111111111111111110110 aaaal
b100011111 aaaam
b0 aaaan

